simulation/qsim/procesador.msim.vcd
$comment
	File created using the following command:
		vcd file procesador.msim.vcd -direction
$end
$date
	Mon Sep 18 19:14:23 2023
$end
$version
	ModelSim Version 10.5b
$end
$timescale
	1ps
$end

$scope module procesador_vhd_vec_tst $end
$var wire 1 ! ac [7] $end
$var wire 1 " ac [6] $end
$var wire 1 # ac [5] $end
$var wire 1 $ ac [4] $end
$var wire 1 % ac [3] $end
$var wire 1 & ac [2] $end
$var wire 1 ' ac [1] $end
$var wire 1 ( ac [0] $end
$var wire 1 ) clk $end
$var wire 1 * dato [7] $end
$var wire 1 + dato [6] $end
$var wire 1 , dato [5] $end
$var wire 1 - dato [4] $end
$var wire 1 . dato [3] $end
$var wire 1 / dato [2] $end
$var wire 1 0 dato [1] $end
$var wire 1 1 dato [0] $end
$var wire 1 2 insTt [7] $end
$var wire 1 3 insTt [6] $end
$var wire 1 4 insTt [5] $end
$var wire 1 5 insTt [4] $end
$var wire 1 6 insTt [3] $end
$var wire 1 7 insTt [2] $end
$var wire 1 8 insTt [1] $end
$var wire 1 9 insTt [0] $end
$var wire 1 : pin_name1 $end
$var wire 1 ; pin_name2 [7] $end
$var wire 1 < pin_name2 [6] $end
$var wire 1 = pin_name2 [5] $end
$var wire 1 > pin_name2 [4] $end
$var wire 1 ? pin_name2 [3] $end
$var wire 1 @ pin_name2 [2] $end
$var wire 1 A pin_name2 [1] $end
$var wire 1 B pin_name2 [0] $end
$var wire 1 C PREBA $end

$scope module i1 $end
$var wire 1 D gnd $end
$var wire 1 E vcc $end
$var wire 1 F unknown $end
$var wire 1 G devoe $end
$var wire 1 H devclrn $end
$var wire 1 I devpor $end
$var wire 1 J ww_devoe $end
$var wire 1 K ww_devclrn $end
$var wire 1 L ww_devpor $end
$var wire 1 M ww_pin_name1 $end
$var wire 1 N ww_clk $end
$var wire 1 O ww_PREBA $end
$var wire 1 P ww_ac [7] $end
$var wire 1 Q ww_ac [6] $end
$var wire 1 R ww_ac [5] $end
$var wire 1 S ww_ac [4] $end
$var wire 1 T ww_ac [3] $end
$var wire 1 U ww_ac [2] $end
$var wire 1 V ww_ac [1] $end
$var wire 1 W ww_ac [0] $end
$var wire 1 X ww_dato [7] $end
$var wire 1 Y ww_dato [6] $end
$var wire 1 Z ww_dato [5] $end
$var wire 1 [ ww_dato [4] $end
$var wire 1 \ ww_dato [3] $end
$var wire 1 ] ww_dato [2] $end
$var wire 1 ^ ww_dato [1] $end
$var wire 1 _ ww_dato [0] $end
$var wire 1 ` ww_insTt [7] $end
$var wire 1 a ww_insTt [6] $end
$var wire 1 b ww_insTt [5] $end
$var wire 1 c ww_insTt [4] $end
$var wire 1 d ww_insTt [3] $end
$var wire 1 e ww_insTt [2] $end
$var wire 1 f ww_insTt [1] $end
$var wire 1 g ww_insTt [0] $end
$var wire 1 h ww_pin_name2 [7] $end
$var wire 1 i ww_pin_name2 [6] $end
$var wire 1 j ww_pin_name2 [5] $end
$var wire 1 k ww_pin_name2 [4] $end
$var wire 1 l ww_pin_name2 [3] $end
$var wire 1 m ww_pin_name2 [2] $end
$var wire 1 n ww_pin_name2 [1] $end
$var wire 1 o ww_pin_name2 [0] $end
$var wire 1 p \inst5|inst25~clkctrl_INCLK_bus\ [3] $end
$var wire 1 q \inst5|inst25~clkctrl_INCLK_bus\ [2] $end
$var wire 1 r \inst5|inst25~clkctrl_INCLK_bus\ [1] $end
$var wire 1 s \inst5|inst25~clkctrl_INCLK_bus\ [0] $end
$var wire 1 t \inst5|inst20~clkctrl_INCLK_bus\ [3] $end
$var wire 1 u \inst5|inst20~clkctrl_INCLK_bus\ [2] $end
$var wire 1 v \inst5|inst20~clkctrl_INCLK_bus\ [1] $end
$var wire 1 w \inst5|inst20~clkctrl_INCLK_bus\ [0] $end
$var wire 1 x \inst5|inst16~clkctrl_INCLK_bus\ [3] $end
$var wire 1 y \inst5|inst16~clkctrl_INCLK_bus\ [2] $end
$var wire 1 z \inst5|inst16~clkctrl_INCLK_bus\ [1] $end
$var wire 1 { \inst5|inst16~clkctrl_INCLK_bus\ [0] $end
$var wire 1 | \inst5|inst23~clkctrl_INCLK_bus\ [3] $end
$var wire 1 } \inst5|inst23~clkctrl_INCLK_bus\ [2] $end
$var wire 1 ~ \inst5|inst23~clkctrl_INCLK_bus\ [1] $end
$var wire 1 !! \inst5|inst23~clkctrl_INCLK_bus\ [0] $end
$var wire 1 "! \pin_name1~output_o\ $end
$var wire 1 #! \PREBA~output_o\ $end
$var wire 1 $! \ac[7]~output_o\ $end
$var wire 1 %! \ac[6]~output_o\ $end
$var wire 1 &! \ac[5]~output_o\ $end
$var wire 1 '! \ac[4]~output_o\ $end
$var wire 1 (! \ac[3]~output_o\ $end
$var wire 1 )! \ac[2]~output_o\ $end
$var wire 1 *! \ac[1]~output_o\ $end
$var wire 1 +! \ac[0]~output_o\ $end
$var wire 1 ,! \dato[7]~output_o\ $end
$var wire 1 -! \dato[6]~output_o\ $end
$var wire 1 .! \dato[5]~output_o\ $end
$var wire 1 /! \dato[4]~output_o\ $end
$var wire 1 0! \dato[3]~output_o\ $end
$var wire 1 1! \dato[2]~output_o\ $end
$var wire 1 2! \dato[1]~output_o\ $end
$var wire 1 3! \dato[0]~output_o\ $end
$var wire 1 4! \insTt[7]~output_o\ $end
$var wire 1 5! \insTt[6]~output_o\ $end
$var wire 1 6! \insTt[5]~output_o\ $end
$var wire 1 7! \insTt[4]~output_o\ $end
$var wire 1 8! \insTt[3]~output_o\ $end
$var wire 1 9! \insTt[2]~output_o\ $end
$var wire 1 :! \insTt[1]~output_o\ $end
$var wire 1 ;! \insTt[0]~output_o\ $end
$var wire 1 <! \pin_name2[7]~output_o\ $end
$var wire 1 =! \pin_name2[6]~output_o\ $end
$var wire 1 >! \pin_name2[5]~output_o\ $end
$var wire 1 ?! \pin_name2[4]~output_o\ $end
$var wire 1 @! \pin_name2[3]~output_o\ $end
$var wire 1 A! \pin_name2[2]~output_o\ $end
$var wire 1 B! \pin_name2[1]~output_o\ $end
$var wire 1 C! \pin_name2[0]~output_o\ $end
$var wire 1 D! \clk~input_o\ $end
$var wire 1 E! \inst5|inst~0_combout\ $end
$var wire 1 F! \inst5|inst~feeder_combout\ $end
$var wire 1 G! \inst5|inst~q\ $end
$var wire 1 H! \inst5|inst1~0_combout\ $end
$var wire 1 I! \inst5|inst1~feeder_combout\ $end
$var wire 1 J! \inst5|inst1~q\ $end
$var wire 1 K! \inst5|inst10~0_combout\ $end
$var wire 1 L! \inst5|inst2~q\ $end
$var wire 1 M! \inst5|inst25~combout\ $end
$var wire 1 N! \inst5|inst25~clkctrl_outclk\ $end
$var wire 1 O! \inst5|inst24~combout\ $end
$var wire 1 P! \instA|inst~0_combout\ $end
$var wire 1 Q! \instA|inst~feeder_combout\ $end
$var wire 1 R! \instA|inst~q\ $end
$var wire 1 S! \instA|inst1~0_combout\ $end
$var wire 1 T! \instA|inst1~feeder_combout\ $end
$var wire 1 U! \instA|inst1~q\ $end
$var wire 1 V! \instA|inst2~0_combout\ $end
$var wire 1 W! \instA|inst2~feeder_combout\ $end
$var wire 1 X! \instA|inst2~q\ $end
$var wire 1 Y! \instA|inst3~0_combout\ $end
$var wire 1 Z! \instA|inst3~feeder_combout\ $end
$var wire 1 [! \instA|inst3~q\ $end
$var wire 1 \! \inst3|Mux3~0_combout\ $end
$var wire 1 ]! \instA|inst4~0_combout\ $end
$var wire 1 ^! \instA|inst4~q\ $end
$var wire 1 _! \instA|inst5~0_combout\ $end
$var wire 1 `! \instA|inst5~feeder_combout\ $end
$var wire 1 a! \instA|inst5~q\ $end
$var wire 1 b! \instA|inst6~0_combout\ $end
$var wire 1 c! \instA|inst6~feeder_combout\ $end
$var wire 1 d! \instA|inst6~q\ $end
$var wire 1 e! \instA|inst7~0_combout\ $end
$var wire 1 f! \instA|inst7~q\ $end
$var wire 1 g! \inst4|Mux3~0_combout\ $end
$var wire 1 h! \inst3|Mux3~1_combout\ $end
$var wire 1 i! \inst16|inst~q\ $end
$var wire 1 j! \inst3|Mux1~0_combout\ $end
$var wire 1 k! \inst3|Mux1~1_combout\ $end
$var wire 1 l! \inst16|inst17~q\ $end
$var wire 1 m! \inst3|Mux2~0_combout\ $end
$var wire 1 n! \inst3|Mux2~1_combout\ $end
$var wire 1 o! \inst16|inst16~q\ $end
$var wire 1 p! \inst3|Mux0~0_combout\ $end
$var wire 1 q! \inst3|Mux0~1_combout\ $end
$var wire 1 r! \inst16|inst18~feeder_combout\ $end
$var wire 1 s! \inst16|inst18~q\ $end
$var wire 1 t! \instAL|instW|inst~0_combout\ $end
$var wire 1 u! \inst5|inst20~combout\ $end
$var wire 1 v! \inst5|inst20~clkctrl_outclk\ $end
$var wire 1 w! \instAL|instW|inst~10_combout\ $end
$var wire 1 x! \inst5|inst16~combout\ $end
$var wire 1 y! \inst5|inst16~clkctrl_outclk\ $end
$var wire 1 z! \inst4|Mux7~0_combout\ $end
$var wire 1 {! \inst4|Mux7~1_combout\ $end
$var wire 1 |! \inst|inst~q\ $end
$var wire 1 }! \inst4|Mux5~0_combout\ $end
$var wire 1 ~! \inst4|Mux5~1_combout\ $end
$var wire 1 !" \inst|inst17~q\ $end
$var wire 1 "" \inst4|Mux6~0_combout\ $end
$var wire 1 #" \inst4|Mux6~1_combout\ $end
$var wire 1 $" \inst|inst16~q\ $end
$var wire 1 %" \inst4|Mux2~0_combout\ $end
$var wire 1 &" \inst4|Mux2~1_combout\ $end
$var wire 1 '" \inst|inst20~q\ $end
$var wire 1 (" \inst4|Mux3~1_combout\ $end
$var wire 1 )" \inst|inst19~q\ $end
$var wire 1 *" \inst4|Mux4~0_combout\ $end
$var wire 1 +" \inst4|Mux4~1_combout\ $end
$var wire 1 ," \inst|inst18~q\ $end
$var wire 1 -" \instAL|inst11|inst3|inst9~0_combout\ $end
$var wire 1 ." \instAL|inst11|inst3|inst34~combout\ $end
$var wire 1 /" \instAL|inst4|inst16|inst62~0_combout\ $end
$var wire 1 0" \instAL|inst4|inst10|inst5~0_combout\ $end
$var wire 1 1" \instAL|inst11|inst3|inst10~combout\ $end
$var wire 1 2" \instAL|inst4|inst15|inst7~0_combout\ $end
$var wire 1 3" \instAL|inst6|instX|inst7~10_combout\ $end
$var wire 1 4" \inst5|inst23~combout\ $end
$var wire 1 5" \inst5|inst23~clkctrl_outclk\ $end
$var wire 1 6" \inst17|inst22~q\ $end
$var wire 1 7" \instAL|instW|inst~2_combout\ $end
$var wire 1 8" \instAL|instW|inst~3_combout\ $end
$var wire 1 9" \instAL|inst6|instX|inst7~2_combout\ $end
$var wire 1 :" \instAL|instW|inst~7_combout\ $end
$var wire 1 ;" \instAL|instW|inst~6_combout\ $end
$var wire 1 <" \instAL|inst6|instX|inst7~4_combout\ $end
$var wire 1 =" \instAL|instW|inst~5_combout\ $end
$var wire 1 >" \instAL|instW|inst~4_combout\ $end
$var wire 1 ?" \instAL|inst6|instX|inst7~3_combout\ $end
$var wire 1 @" \instAL|instW|inst~1_combout\ $end
$var wire 1 A" \instAL|inst6|instX|inst3~2_combout\ $end
$var wire 1 B" \instAL|inst6|instX|inst3~3_combout\ $end
$var wire 1 C" \instAL|inst4|inst15|inst2~0_combout\ $end
$var wire 1 D" \instAL|inst4|inst16|inst68~combout\ $end
$var wire 1 E" \instAL|instW|inst~8_combout\ $end
$var wire 1 F" \instAL|instR|inst1|inst3|inst4~combout\ $end
$var wire 1 G" \instAL|instR|inst1|inst4|inst4~combout\ $end
$var wire 1 H" \instAL|instR|inst1|inst2|inst4~combout\ $end
$var wire 1 I" \instAL|instR|inst|inst3|inst3~0_combout\ $end
$var wire 1 J" \instAL|instR|inst|inst4|inst3~0_combout\ $end
$var wire 1 K" \instAL|instR|inst|inst7|inst3~0_combout\ $end
$var wire 1 L" \instAL|instR|inst|inst5|inst1~combout\ $end
$var wire 1 M" \instAL|inst6|instX|inst6~1_combout\ $end
$var wire 1 N" \instAL|inst6|instX|inst6~0_combout\ $end
$var wire 1 O" \instAL|inst6|instX|inst6~2_combout\ $end
$var wire 1 P" \instAL|instW|inst~9_combout\ $end
$var wire 1 Q" \instAL|inst11|inst15|inst6~0_combout\ $end
$var wire 1 R" \instAL|inst11|inst15|inst6~1_combout\ $end
$var wire 1 S" \instAL|inst6|instX|inst6~3_combout\ $end
$var wire 1 T" \instAL|inst11|inst3|inst9~1_combout\ $end
$var wire 1 U" \instAL|inst4|inst2|inst6~0_combout\ $end
$var wire 1 V" \instAL|inst4|inst2|inst7~0_combout\ $end
$var wire 1 W" \instAL|inst4|inst15|inst6~0_combout\ $end
$var wire 1 X" \instAL|instY|inst5|inst1~combout\ $end
$var wire 1 Y" \instAL|inst6|instX|inst6~4_combout\ $end
$var wire 1 Z" \instAL|inst6|instX|inst6~5_combout\ $end
$var wire 1 [" \inst18|inst21~q\ $end
$var wire 1 \" \inst17|inst21~q\ $end
$var wire 1 ]" \instAL|inst4|inst16|inst62~combout\ $end
$var wire 1 ^" \instAL|inst4|inst15|inst2~1_combout\ $end
$var wire 1 _" \instAL|inst4|inst15|inst2~2_combout\ $end
$var wire 1 `" \instAL|inst6|instX|inst2~3_combout\ $end
$var wire 1 a" \instAL|inst6|instX|inst2~2_combout\ $end
$var wire 1 b" \instAL|inst6|instX|inst2~1_combout\ $end
$var wire 1 c" \instAL|inst5|inst9~0_combout\ $end
$var wire 1 d" \instAL|inst4|inst15|inst1~0_combout\ $end
$var wire 1 e" \instAL|inst4|inst15|inst1~1_combout\ $end
$var wire 1 f" \instAL|inst4|inst15|inst1~2_combout\ $end
$var wire 1 g" \instAL|inst6|instX|inst1~2_combout\ $end
$var wire 1 h" \instAL|inst6|instX|inst1~1_combout\ $end
$var wire 1 i" \instAL|inst6|instX|inst1~4_combout\ $end
$var wire 1 j" \instAL|instR|inst|inst1|inst1~0_combout\ $end
$var wire 1 k" \instAL|inst6|instX|inst1~0_combout\ $end
$var wire 1 l" \instAL|inst6|instX|inst1~5_combout\ $end
$var wire 1 m" \instAL|inst11|inst3|inst37~0_combout\ $end
$var wire 1 n" \instAL|inst11|inst3|inst43~combout\ $end
$var wire 1 o" \instAL|inst11|inst3|inst37~combout\ $end
$var wire 1 p" \instAL|inst11|inst15|inst1~1_combout\ $end
$var wire 1 q" \instAL|inst11|inst3|inst9~combout\ $end
$var wire 1 r" \instAL|inst11|inst15|inst1~2_combout\ $end
$var wire 1 s" \instAL|inst11|inst2|inst7~0_combout\ $end
$var wire 1 t" \instAL|inst11|inst15|inst7~0_combout\ $end
$var wire 1 u" \instAL|inst11|inst3|inst19~combout\ $end
$var wire 1 v" \instAL|inst4|inst9|inst3~0_combout\ $end
$var wire 1 w" \instAL|inst11|inst3|inst50~combout\ $end
$var wire 1 x" \instAL|inst11|inst15|inst1~0_combout\ $end
$var wire 1 y" \instAL|inst11|inst15|inst1~3_combout\ $end
$var wire 1 z" \instAL|inst6|instX|inst1~3_combout\ $end
$var wire 1 {" \inst18|inst16~q\ $end
$var wire 1 |" \inst17|inst16~q\ $end
$var wire 1 }" \instAL|inst4|inst15|inst~0_combout\ $end
$var wire 1 ~" \instAL|inst4|inst11|inst~0_combout\ $end
$var wire 1 !# \instAL|inst4|inst15|inst~1_combout\ $end
$var wire 1 "# \instAL|inst6|instX|inst~2_combout\ $end
$var wire 1 ## \instAL|inst6|instX|inst~1_combout\ $end
$var wire 1 $# \instAL|inst2|instX|inst~0_combout\ $end
$var wire 1 %# \instAL|inst6|instX|inst~0_combout\ $end
$var wire 1 &# \instAL|inst6|instX|inst~3_combout\ $end
$var wire 1 '# \instAL|inst11|inst15|inst~0_combout\ $end
$var wire 1 (# \instAL|inst11|inst15|inst~1_combout\ $end
$var wire 1 )# \instAL|inst11|inst15|inst~2_combout\ $end
$var wire 1 *# \instAL|inst11|inst15|inst~3_combout\ $end
$var wire 1 +# \instAL|inst11|inst15|inst~4_combout\ $end
$var wire 1 ,# \instAL|inst6|instX|inst~4_combout\ $end
$var wire 1 -# \instAL|inst6|instX|inst~5_combout\ $end
$var wire 1 .# \inst18|inst~q\ $end
$var wire 1 /# \inst17|inst~q\ $end
$var wire 1 0# \instAL|instY|inst1|inst3~0_combout\ $end
$var wire 1 1# \instAL|instR|inst1|inst1|inst4~combout\ $end
$var wire 1 2# \instAL|instR|inst|inst1|inst3~0_combout\ $end
$var wire 1 3# \instAL|instR|inst|instX|inst2~0_combout\ $end
$var wire 1 4# \instAL|inst6|instX|inst2~0_combout\ $end
$var wire 1 5# \instAL|inst6|instX|inst2~4_combout\ $end
$var wire 1 6# \instAL|inst11|inst15|inst2~0_combout\ $end
$var wire 1 7# \instAL|inst11|inst15|inst2~1_combout\ $end
$var wire 1 8# \instAL|inst11|inst15|inst2~2_combout\ $end
$var wire 1 9# \instAL|inst11|inst15|inst2~3_combout\ $end
$var wire 1 :# \instAL|inst6|instX|inst2~5_combout\ $end
$var wire 1 ;# \inst18|inst17~q\ $end
$var wire 1 <# \inst17|inst17~q\ $end
$var wire 1 =# \instAL|instR|inst|inst2|inst3~0_combout\ $end
$var wire 1 ># \instAL|inst5|inst10~0_combout\ $end
$var wire 1 ?# \instAL|instR|inst|instX|inst3~0_combout\ $end
$var wire 1 @# \instAL|inst6|instX|inst3~0_combout\ $end
$var wire 1 A# \instAL|instY|inst2|inst3~0_combout\ $end
$var wire 1 B# \instAL|inst6|instX|inst3~1_combout\ $end
$var wire 1 C# \instAL|inst6|instX|inst3~4_combout\ $end
$var wire 1 D# \instAL|inst11|inst15|inst3~1_combout\ $end
$var wire 1 E# \instAL|inst11|inst15|inst3~0_combout\ $end
$var wire 1 F# \instAL|inst11|inst15|inst3~2_combout\ $end
$var wire 1 G# \instAL|inst4|inst15|inst3~0_combout\ $end
$var wire 1 H# \instAL|inst4|inst15|inst3~1_combout\ $end
$var wire 1 I# \instAL|inst6|instX|inst3~5_combout\ $end
$var wire 1 J# \instAL|inst6|instX|inst3~6_combout\ $end
$var wire 1 K# \inst18|inst18~q\ $end
$var wire 1 L# \inst17|inst18~q\ $end
$var wire 1 M# \instAL|instY|inst3|inst3~0_combout\ $end
$var wire 1 N# \instAL|instY|instX|inst4~0_combout\ $end
$var wire 1 O# \instAL|inst6|instX|inst4~2_combout\ $end
$var wire 1 P# \instAL|inst6|instX|inst4~0_combout\ $end
$var wire 1 Q# \instAL|inst6|instX|inst4~1_combout\ $end
$var wire 1 R# \instAL|inst5|inst11~0_combout\ $end
$var wire 1 S# \instAL|instR|inst|instX|inst4~0_combout\ $end
$var wire 1 T# \instAL|inst6|instX|inst4~3_combout\ $end
$var wire 1 U# \instAL|inst11|inst15|inst4~0_combout\ $end
$var wire 1 V# \instAL|inst4|inst2|inst5~0_combout\ $end
$var wire 1 W# \instAL|inst11|inst15|inst4~1_combout\ $end
$var wire 1 X# \instAL|inst4|inst15|inst4~0_combout\ $end
$var wire 1 Y# \instAL|inst4|inst15|inst4~1_combout\ $end
$var wire 1 Z# \instAL|inst4|inst15|inst4~2_combout\ $end
$var wire 1 [# \instAL|inst6|instX|inst4~4_combout\ $end
$var wire 1 \# \instAL|inst6|instX|inst4~5_combout\ $end
$var wire 1 ]# \inst18|inst19~q\ $end
$var wire 1 ^# \inst17|inst19~q\ $end
$var wire 1 _# \instAL|instY|inst4|inst3~0_combout\ $end
$var wire 1 `# \instAL|instY|instX|inst5~0_combout\ $end
$var wire 1 a# \instAL|inst6|instX|inst5~1_combout\ $end
$var wire 1 b# \instAL|instR|inst|inst7|inst1~combout\ $end
$var wire 1 c# \instAL|inst6|instX|inst5~2_combout\ $end
$var wire 1 d# \instAL|inst6|instX|inst5~3_combout\ $end
$var wire 1 e# \instAL|inst6|instX|inst5~4_combout\ $end
$var wire 1 f# \instAL|inst11|inst15|inst5~0_combout\ $end
$var wire 1 g# \instAL|inst4|inst10|inst5~1_combout\ $end
$var wire 1 h# \instAL|inst6|instX|inst5~0_combout\ $end
$var wire 1 i# \instAL|inst6|instX|inst5~5_combout\ $end
$var wire 1 j# \inst18|inst20~q\ $end
$var wire 1 k# \inst17|inst20~q\ $end
$var wire 1 l# \instAL|instY|inst5|inst3~0_combout\ $end
$var wire 1 m# \instAL|instY|instX|inst7~0_combout\ $end
$var wire 1 n# \instAL|inst6|instX|inst7~5_combout\ $end
$var wire 1 o# \instAL|inst6|instX|inst7~6_combout\ $end
$var wire 1 p# \instAL|inst6|instX|inst7~7_combout\ $end
$var wire 1 q# \instAL|inst6|instX|inst7~8_combout\ $end
$var wire 1 r# \instAL|inst6|instX|inst7~9_combout\ $end
$var wire 1 s# \inst18|inst22~q\ $end
$var wire 1 t# \instAL|instW|ALT_INV_inst~0_combout\ $end
$var wire 1 u# \instA|ALT_INV_inst6~q\ $end
$var wire 1 v# \instA|ALT_INV_inst5~q\ $end
$var wire 1 w# \instA|ALT_INV_inst4~q\ $end
$var wire 1 x# \instA|ALT_INV_inst3~q\ $end
$var wire 1 y# \instA|ALT_INV_inst2~q\ $end
$var wire 1 z# \instA|ALT_INV_inst1~q\ $end
$var wire 1 {# \instA|ALT_INV_inst~q\ $end
$upscope $end
$upscope $end
$enddefinitions $end
#0
$dumpvars
0)
z:
0C
0D
1E
xF
1G
1H
1I
1J
1K
1L
zM
0N
0O
z"!
0#!
0$!
0%!
0&!
0'!
0(!
0)!
0*!
0+!
0,!
0-!
0.!
0/!
00!
01!
02!
03!
04!
05!
06!
07!
08!
09!
0:!
0;!
0<!
0=!
0>!
0?!
0@!
1A!
1B!
0C!
0D!
1E!
1F!
0G!
0H!
0I!
0J!
0K!
0L!
0M!
0N!
0O!
1P!
1Q!
0R!
1S!
1T!
0U!
1V!
1W!
0X!
1Y!
1Z!
0[!
0\!
1]!
0^!
1_!
1`!
0a!
1b!
1c!
0d!
1e!
0f!
1g!
0h!
0i!
0j!
1k!
0l!
0m!
1n!
0o!
0p!
0q!
0r!
0s!
0t!
0u!
0v!
0w!
0x!
0y!
0z!
0{!
0|!
0}!
0~!
0!"
0""
1#"
0$"
0%"
0&"
0'"
0("
0)"
0*"
0+"
0,"
1-"
0."
1/"
10"
01"
02"
13"
04"
05"
06"
07"
08"
19"
0:"
0;"
1<"
1="
0>"
0?"
0@"
1A"
0B"
1C"
0D"
0E"
0F"
0G"
0H"
0I"
0J"
0K"
0L"
1M"
1N"
0O"
0P"
1Q"
1R"
0S"
1T"
1U"
1V"
1W"
0X"
0Y"
0Z"
0["
0\"
0]"
1^"
1_"
1`"
0a"
1b"
0c"
1d"
1e"
1f"
1g"
0h"
1i"
0j"
1k"
0l"
0m"
0n"
0o"
1p"
0q"
1r"
1s"
0t"
0u"
1v"
0w"
1x"
1y"
0z"
0{"
0|"
1}"
1~"
1!#
1"#
0##
1$#
1%#
0&#
1'#
1(#
1)#
1*#
1+#
0,#
0-#
0.#
0/#
00#
01#
02#
13#
14#
05#
16#
17#
18#
19#
0:#
0;#
0<#
0=#
0>#
1?#
1@#
0A#
1B#
0C#
1D#
1E#
1F#
1G#
1H#
1I#
0J#
0K#
0L#
0M#
1N#
1O#
1P#
0Q#
0R#
1S#
0T#
1U#
1V#
1W#
1X#
1Y#
1Z#
1[#
0\#
0]#
0^#
0_#
1`#
1a#
0b#
0c#
0d#
0e#
1f#
1g#
1h#
0i#
0j#
0k#
0l#
1m#
0n#
1o#
0p#
1q#
0r#
0s#
1t#
1u#
1v#
1w#
1x#
1y#
1z#
1{#
0P
0Q
0R
0S
0T
0U
0V
0W
0X
0Y
0Z
0[
0\
0]
0^
0_
0`
0a
0b
0c
0d
0e
0f
0g
0h
0i
0j
0k
0l
1m
1n
0o
1p
1q
1r
0s
1t
1u
1v
0w
1x
1y
1z
0{
1|
1}
1~
0!!
0!
0"
0#
0$
0%
0&
0'
0(
0*
0+
0,
0-
0.
0/
00
01
02
03
04
05
06
07
08
09
0;
0<
0=
0>
0?
1@
1A
0B
$end
#5000
1)
1N
1D!
1G!
0E!
1H!
1M!
1s
1I!
0F!
1N!
1l!
1o!
1;"
0="
1?"
1B"
1a"
1h"
1##
1Q#
0<"
0A"
0`"
0i"
0O#
1:!
19!
1&#
1f
1e
18
17
#10000
0)
0N
0D!
#15000
1)
1N
1D!
0G!
1J!
1E!
0M!
1x!
0s
1{
1F!
1y!
0N!
1$"
0/"
11"
1F"
1H"
0Q"
0U"
1i"
1j"
11#
0V#
0W#
0g#
0o#
1l"
0f#
1G"
0C"
0d"
0r"
0!#
0)#
0D#
0H#
0Y#
12!
0F#
0*#
1L"
1b#
1z"
1^
10
#20000
0)
0N
0D!
#25000
1)
1N
1D!
1G!
0E!
0H!
1K!
0x!
0{
0I!
0F!
0y!
#30000
0)
0N
0D!
#35000
1)
1N
1D!
0G!
0J!
1L!
1E!
1O!
1R!
1F!
0{#
0P!
1j!
1m!
1%"
1("
1*"
1+"
1&"
0n!
0k!
0Q!
0A!
0B!
0m
0n
0A
0@
#40000
0)
0N
0D!
#45000
1)
1N
1D!
1G!
0E!
1H!
0O!
1u!
1w
1I!
0F!
1v!
1{"
1*!
1V
1'
#50000
0)
0N
0D!
#55000
1)
1N
1D!
0G!
1J!
1E!
0u!
0w
1F!
0v!
#60000
0)
0N
0D!
#65000
1)
1N
1D!
1G!
0E!
0H!
0K!
14"
1!!
0I!
0F!
15"
1|"
0j"
1!#
10#
12#
1=#
1I"
1J"
1K"
0b#
0L"
1p#
#70000
0)
0N
0D!
#75000
1)
1N
1D!
0G!
0J!
0L!
1E!
04"
0!!
1F!
05"
#80000
0)
0N
0D!
#85000
1)
1N
1D!
1G!
0E!
1H!
1M!
1s
1I!
0F!
1N!
0l!
0o!
0;"
1="
0?"
0B"
0a"
0h"
0##
0Q#
1<"
1A"
1`"
1,#
1O#
0:!
09!
1-#
0&#
0l"
0f
0e
08
07
0z"
0,#
0-#
#90000
0)
0N
0D!
#95000
1)
1N
1D!
0G!
1J!
1E!
0M!
1x!
0s
1{
1F!
1y!
0N!
1'"
1)"
1,"
1B"
0I"
1>#
0J"
1Q#
1R#
0-"
1?"
0K"
1L"
1O"
0T"
1X"
1b#
1c#
1o#
0p#
1d#
1U"
1V#
1S"
0L"
1n#
01"
1T#
0b#
1C#
10!
1/!
1,!
1-!
1.!
1J#
1\#
1C"
1d"
1r"
1)#
1D#
1H#
1Y#
1r#
1Y"
1W#
1g#
1f#
1e#
1\
1[
1X
1Y
1Z
1.
1-
1,
1+
1*
1i#
1Z"
1F#
1*#
#100000
0)
0N
0D!
#105000
1)
1N
1D!
1G!
0E!
0H!
1K!
0x!
0{
0I!
0F!
0y!
#110000
0)
0N
0D!
#115000
1)
1N
1D!
0G!
0J!
1L!
1E!
1O!
0R!
1F!
1{#
1P!
0j!
0m!
0%"
0("
0*"
1U!
0+"
0&"
1n!
1k!
1Q!
0z#
0S!
1\!
1j!
1m!
1}!
1""
0#"
1~!
0n!
0k!
1h!
0T!
1A!
1B!
1m
1n
1A
1@
1C!
0A!
0B!
1o
0m
0n
1B
0A
0@
#120000
0)
0N
0D!
#125000
1)
1N
1D!
1G!
0E!
1H!
0O!
1u!
1w
1I!
0F!
1v!
1["
0{"
1K#
1]#
1j#
1s#
1$!
1&!
1'!
1(!
0*!
1%!
1P
1R
1S
1T
0V
1Q
0'
1%
1$
1#
1"
1!
#130000
0)
0N
0D!
#135000
1)
1N
1D!
0G!
1J!
1E!
0u!
0w
1F!
0v!
#140000
0)
0N
0D!
#145000
1)
1N
1D!
1G!
0E!
0H!
0K!
14"
1!!
0I!
0F!
15"
16"
1\"
0|"
1L#
1^#
1k#
1b#
0c#
0Q#
0R#
1_#
0B"
1I"
0>#
1M#
1h"
1j"
00#
02#
1L"
0O"
1l#
0?"
0o#
0n#
0S"
0=#
1l"
1J"
0C#
0T#
0d#
0e#
0\#
0J#
1K"
0b#
1z"
0I"
0Y"
0r#
0Z"
0J"
0L"
1p#
0i#
0K"
1b#
1L"
0p#
#150000
0)
0N
0D!
#155000
1)
1N
1D!
0G!
0J!
0L!
1E!
04"
0!!
1F!
05"
#160000
0)
0N
0D!
#165000
1)
1N
1D!
1G!
0E!
1H!
1M!
1s
1I!
0F!
1N!
1i!
1:"
0="
1?"
1B"
1O"
1a"
1##
1Q#
1c#
0<"
0A"
0N"
0O#
1;!
1&#
15#
1g
19
1:#
1,#
1-#
#170000
0)
0N
0D!
#175000
1)
1N
1D!
0G!
1J!
1E!
0M!
1x!
0s
1{
1F!
1y!
0N!
1!"
0$"
0'"
0)"
0,"
1I"
1>#
0M#
1J"
1R#
1-"
1K"
0L"
0X"
0b#
1o#
1p#
0j"
01#
1c"
1m"
0W#
1L"
1."
0s"
1b#
0_#
00!
0/!
0,!
0-!
0.!
02!
11!
1X"
0l#
0f#
0V"
0}"
0\
0[
0X
0Y
0Z
0^
1]
00
1/
0.
0-
0,
0+
0*
0!#
#180000
0)
0N
0D!
#185000
1)
1N
1D!
1G!
0E!
0H!
1K!
0x!
0{
0I!
0F!
0y!
#190000
0)
0N
0D!
#195000
1)
1N
1D!
0G!
0J!
1L!
1E!
1O!
1R!
1F!
0{#
0P!
0\!
0m!
1z!
1%"
1{!
1n!
0h!
0Q!
0C!
1B!
0o
1n
0B
1A
#200000
0)
0N
0D!
#205000
1)
1N
1D!
1G!
0E!
1H!
0O!
1u!
1w
1I!
0F!
1v!
0["
1{"
1.#
1;#
0K#
0]#
0j#
0s#
0$!
0&!
0'!
0(!
1)!
1+!
1*!
0%!
0P
0R
0S
0T
1U
1W
1V
0Q
1(
1'
1&
0%
0$
0#
0"
0!
#210000
0)
0N
0D!
#215000
1)
1N
1D!
0G!
1J!
1E!
0u!
0w
1F!
0v!
#220000
0)
0N
0D!
